{
    "headers": {
      "Content-Type": "application/json",
      "Access-Control-Allow-Origin": "*",
      "Access-Control-Allow-Credentials": true
    },
    "data": {},
    "code": 200,
    "message": "this is a mock test"
  }